{
    "currentPage": 0,
    "totalPages": 10,
    "dockets": [
        {
            "id": "BIS-2024-0053",
            "title": "Public Briefing on Revisions to Space Related Export Controls",
            "matchQuality": 0.6,
            "comments": {
                "match": 70,
                "total": 100
            },
            "agencyName": "Bureau of Industry and Security",
            "summary": "Docket details IRAs tax changes for 2025",
            "isRulemaking":  true,
            "timelineDates": {
                "dateModified": "2024-06-03 13:46:37.123 -0400",
                "dateCreated": "2022-05-07 13:46:37.123 -0400",
                "dateEffective": "2024-04-16 13:46:37.123 -0400",
                "dateClosed": null,
                "dateCommentsOpened": "2022-06-27 13:46:37.123 -0400"
            },
            "attachments": {
                "match": 267,
                "total": 9401
            }
        }
    ]
}
